Marca;Destino;ScoresMedia;ScoresPercentual
ARCOR;Awareness;1,81140975614195;0,342697050700333
ARCOR;Experiência;0,0680541676494157;0,0128750341893892
ARCOR;Fator Único;2,69287934490707;0,509460549311065
ARCOR;Inércia;0,169377142467207;0,0320441286035633
ARCOR;Relevância;0,544026146734884;0,102923237195649
GAROTO;Awareness;2,21066876028663;0,198505540066708
GAROTO;Experiência;0,21188456692747;0,0190260346304819
GAROTO;Fator Único;5,37606260367505;0,482739987892432
GAROTO;Inércia;0,812331478874574;0,0729427681903267
GAROTO;Relevância;2,52561210159166;0,226785669220051
GENERICA;Awareness;0;0
GENERICA;Experiência;0;0
GENERICA;Fator Único;0;0
GENERICA;Inércia;0;0
GENERICA;Relevância;0;0
HERSHEYS;Awareness;1,97357805525117;0,202975961847649
HERSHEYS;Experiência;0,204304583721251;0,0210120492981601
HERSHEYS;Fator Único;4,86736363754441;0,500592217958724
HERSHEYS;Inércia;0,566036022128875;0,0582149288325988
HERSHEYS;Relevância;2,11192845639193;0,217204842062868
LACTA;Awareness;2,20378753495425;0,180266730571393
LACTA;Experiência;0,259935353517961;0,0212623474792341
LACTA;Fator Único;5,91398602021421;0,4837557648365
LACTA;Inércia;1,00941742022208;0,0825689297353344
LACTA;Relevância;2,83802208294148;0,232146227377539
NESTLE;Awareness;2,22910923835721;0,176999434194337
NESTLE;Experiência;0,264203537084189;0,020978728081764
NESTLE;Fator Único;6,29668858094252;0,49998012522084
NESTLE;Inércia;0,958869933027913;0,076137783062162
NESTLE;Relevância;2,84500647355182;0,225903929440897
NEUGEBAUER;Awareness;1,22363949072318;0,270870433847235
NEUGEBAUER;Experiência;0,0867615039635226;0,0192059233115699
NEUGEBAUER;Fator Único;2,13437708576747;0,472475473044552
NEUGEBAUER;Inércia;0,197154179872202;0,0436429509194879
NEUGEBAUER;Relevância;0,875502416258853;0,193805218877156
